<?xml version="1.0" encoding="UTF-8" standalone="no"?>
<!-- Generator: Adobe Illustrator 15.0.0, SVG Export Plug-In . SVG Version: 6.00 Build 0)  -->

<svg
   xmlns:dc="http://purl.org/dc/elements/1.1/"
   xmlns:cc="http://creativecommons.org/ns#"
   xmlns:rdf="http://www.w3.org/1999/02/22-rdf-syntax-ns#"
   xmlns:svg="http://www.w3.org/2000/svg"
   xmlns="http://www.w3.org/2000/svg"
   xmlns:sodipodi="http://sodipodi.sourceforge.net/DTD/sodipodi-0.dtd"
   xmlns:inkscape="http://www.inkscape.org/namespaces/inkscape"
   version="1.1"
   x="0px"
   y="0px"
   width="185.347"
   height="38.324257"
   viewBox="0 0 185.347 38.324257"
   enable-background="new 0 0 260 78"
   xml:space="preserve"
   id="svg2"
   inkscape:version="0.91 r13725"
   sodipodi:docname="felho3.svg"><metadata
     id="metadata134"><rdf:RDF><cc:Work
         rdf:about=""><dc:format>image/svg+xml</dc:format><dc:type
           rdf:resource="http://purl.org/dc/dcmitype/StillImage" /><dc:title></dc:title></cc:Work></rdf:RDF></metadata><defs
     id="defs132" /><sodipodi:namedview
     pagecolor="#ffffff"
     bordercolor="#666666"
     borderopacity="1"
     objecttolerance="10"
     gridtolerance="10"
     guidetolerance="10"
     inkscape:pageopacity="0"
     inkscape:pageshadow="2"
     inkscape:window-width="1280"
     inkscape:window-height="751"
     id="namedview130"
     showgrid="false"
     inkscape:zoom="1.1413721"
     inkscape:cx="-38.854953"
     inkscape:cy="28.454977"
     inkscape:window-x="0"
     inkscape:window-y="1"
     inkscape:window-maximized="1"
     inkscape:current-layer="layer4"
     fit-margin-top="0"
     fit-margin-left="0"
     fit-margin-right="0"
     fit-margin-bottom="0"><inkscape:grid
       type="xygrid"
       id="grid3744"
       originx="-19.282999"
       originy="-15.038019" /></sodipodi:namedview><g
     inkscape:groupmode="layer"
     id="layer2"
     inkscape:label="hatter"
     style="display:none"
     transform="translate(-19.282999,-24.637724)"><g
       id="Layer_2"><linearGradient
         id="SVGID_1_"
         gradientUnits="userSpaceOnUse"
         x1="132.0005"
         y1="275.00681"
         x2="132.0005"
         y2="-205.99271"><stop
           offset="0"
           style="stop-color:#D7EDF9"
           id="stop6" /><stop
           offset="1"
           style="stop-color:#92D4F5"
           id="stop8" /></linearGradient><rect
         x="-174"
         y="-205.993"
         width="612"
         height="481"
         id="rect10"
         style="fill:url(#SVGID_1_)" /></g></g><g
     inkscape:groupmode="layer"
     id="layer1"
     inkscape:label="nap"
     style="display:none"
     transform="translate(-19.282999,-24.637724)"><g
       id="g13"
       transform="translate(146.31512,44.683058)"><radialGradient
         id="SVGID_2_"
         cx="-37.388199"
         cy="-76.346199"
         r="107.3947"
         gradientUnits="userSpaceOnUse"><stop
           offset="0"
           style="stop-color:#FFD80D"
           id="stop16" /><stop
           offset="0.0877"
           style="stop-color:#FED91B"
           id="stop18" /><stop
           offset="0.2036"
           style="stop-color:#FEDC35"
           id="stop20" /><stop
           offset="0.3351"
           style="stop-color:#FDE056"
           id="stop22" /><stop
           offset="0.4773"
           style="stop-color:#FCE77C"
           id="stop24" /><stop
           offset="0.497"
           style="stop-color:#FCE881"
           id="stop26" /><stop
           offset="0.5916"
           style="stop-color:#FCE67F"
           id="stop28" /><stop
           offset="0.6628"
           style="stop-color:#FBDF7A"
           id="stop30" /><stop
           offset="0.7264"
           style="stop-color:#FAD372"
           id="stop32" /><stop
           offset="0.7855"
           style="stop-color:#F8C366"
           id="stop34" /><stop
           offset="0.8415"
           style="stop-color:#F6AD56"
           id="stop36" /><stop
           offset="0.8953"
           style="stop-color:#F39345"
           id="stop38" /><stop
           offset="0.9472"
           style="stop-color:#F17534"
           id="stop40" /><stop
           offset="0.9964"
           style="stop-color:#EE4B26"
           id="stop42" /><stop
           offset="1"
           style="stop-color:#EE4725"
           id="stop44" /></radialGradient><polygon
         points="-15.488,-125.536 16.456,-169.608 -5.739,-119.908 34.67,-156.375 2.626,-112.376 49.734,-139.645 9.242,-103.269 60.991,-120.147 13.821,-92.985 67.947,-98.735 16.162,-81.975 70.301,-76.346 16.162,-70.718 67.947,-53.957 13.821,-59.707 60.991,-32.545 9.242,-49.424 49.734,-13.048 2.626,-40.316 34.67,3.683 -5.739,-32.785 16.456,16.916 -15.488,-27.156 -4.11,26.072 -26.193,-23.679 -26.131,30.753 -37.388,-22.502 -48.645,30.753 -48.583,-23.679 -70.666,26.072 -59.289,-27.156 -91.232,16.916 -69.038,-32.785 -109.446,3.683 -77.402,-40.317 -124.51,-13.048 -84.018,-49.424 -135.767,-32.545 -88.598,-59.707 -142.724,-53.957 -90.938,-70.718 -145.078,-76.346 -90.938,-81.975 -142.724,-98.735 -88.598,-92.985 -135.767,-120.147 -84.018,-103.269 -124.51,-139.645 -77.402,-112.376 -109.446,-156.375 -69.038,-119.908 -91.232,-169.608 -59.289,-125.536 -70.666,-178.764 -48.583,-129.014 -48.645,-183.445 -37.388,-130.19 -26.131,-183.445 -26.193,-129.014 -4.11,-178.764 "
         id="polygon46"
         style="fill:url(#SVGID_2_)" /><g
         id="g48"><circle
           cx="-37.388"
           cy="-76.347"
           r="70.753998"
           id="circle50"
           style="fill:#f7ec08" /><radialGradient
           id="SVGID_3_"
           cx="-37.388199"
           cy="-76.346199"
           r="70.754898"
           gradientUnits="userSpaceOnUse"><stop
             offset="0"
             style="stop-color:#FFD275"
             id="stop53" /><stop
             offset="0.2399"
             style="stop-color:#FFD074"
             id="stop55" /><stop
             offset="0.3953"
             style="stop-color:#FEC96F"
             id="stop57" /><stop
             offset="0.5268"
             style="stop-color:#FDBE67"
             id="stop59" /><stop
             offset="0.6449"
             style="stop-color:#FBAE5C"
             id="stop61" /><stop
             offset="0.7541"
             style="stop-color:#F89A4D"
             id="stop63" /><stop
             offset="0.8567"
             style="stop-color:#F5823D"
             id="stop65" /><stop
             offset="0.9523"
             style="stop-color:#F2642E"
             id="stop67" /><stop
             offset="1"
             style="stop-color:#F05027"
             id="stop69" /></radialGradient><circle
           cx="-37.388"
           cy="-76.347"
           r="70.753998"
           id="circle71"
           style="fill:url(#SVGID_3_)" /><radialGradient
           id="SVGID_4_"
           cx="-37.388199"
           cy="-76.346199"
           r="70.754898"
           gradientUnits="userSpaceOnUse"><stop
             offset="0"
             style="stop-color:#FFD80D"
             id="stop74" /><stop
             offset="0.0877"
             style="stop-color:#FED91B"
             id="stop76" /><stop
             offset="0.2036"
             style="stop-color:#FEDC35"
             id="stop78" /><stop
             offset="0.3351"
             style="stop-color:#FDE056"
             id="stop80" /><stop
             offset="0.4773"
             style="stop-color:#FCE77C"
             id="stop82" /><stop
             offset="0.497"
             style="stop-color:#FCE881"
             id="stop84" /><stop
             offset="0.5916"
             style="stop-color:#FCE67F"
             id="stop86" /><stop
             offset="0.6628"
             style="stop-color:#FBDF7A"
             id="stop88" /><stop
             offset="0.7264"
             style="stop-color:#FAD372"
             id="stop90" /><stop
             offset="0.7855"
             style="stop-color:#F8C366"
             id="stop92" /><stop
             offset="0.8415"
             style="stop-color:#F6AD56"
             id="stop94" /><stop
             offset="0.8953"
             style="stop-color:#F39345"
             id="stop96" /><stop
             offset="0.9472"
             style="stop-color:#F17534"
             id="stop98" /><stop
             offset="0.9964"
             style="stop-color:#EE4B26"
             id="stop100" /><stop
             offset="1"
             style="stop-color:#EE4725"
             id="stop102" /></radialGradient><circle
           cx="-37.388"
           cy="-76.347"
           r="70.753998"
           id="circle104"
           style="fill:url(#SVGID_4_)" /></g></g></g><g
     inkscape:groupmode="layer"
     id="layer3"
     inkscape:label="felhok"
     style="display:none"
     transform="translate(-19.282999,-24.637724)"><path
       d="m 391.697,218.193 c -5.984,0 -11.617,0.74 -16.557,2.041 -3.703,-6.188 -15.487,-10.711 -29.462,-10.711 -6.87,0 -13.211,1.093 -18.323,2.939 -2.364,-1.865 -5.697,-3.033 -9.401,-3.033 -2.614,0 -5.045,0.584 -7.082,1.581 -6.613,-9.745 -20.491,-16.458 -36.545,-16.458 -18.292,0 -33.761,8.713 -38.876,20.698 -21.183,1.38 -37.426,9.31 -37.426,18.888 0,10.549 19.707,19.1 44.017,19.1 6.577,0 12.813,-0.631 18.417,-1.752 4.328,1.132 8.998,1.752 13.868,1.752 6.922,0 13.438,-1.25 19.144,-3.452 6.039,3.188 14.771,5.19 24.483,5.19 11.313,0 21.293,-2.718 27.24,-6.859 6.045,3.1 15.954,5.123 27.161,5.123 3.577,0 7.02,-0.209 10.25,-0.59 2.901,0.382 5.947,0.588 9.092,0.588 19.521,0 35.347,-7.846 35.347,-17.522 0,-9.676 -15.825,-17.523 -35.347,-17.523 z"
       id="path106"
       inkscape:connector-curvature="0"
       style="fill:#ddedf9" /><path
       d="m 232.813,218.193 c -5.984,0 -11.617,0.74 -16.557,2.041 -3.703,-6.188 -15.487,-10.711 -29.462,-10.711 -6.87,0 -13.211,1.093 -18.323,2.939 -2.364,-1.865 -5.697,-3.033 -9.401,-3.033 -2.614,0 -5.045,0.584 -7.082,1.581 -6.613,-9.745 -20.491,-16.458 -36.545,-16.458 -18.292,0 -33.761,8.713 -38.876,20.698 -21.183,1.38 -37.426,9.31 -37.426,18.888 0,10.549 19.707,19.1 44.017,19.1 6.577,0 12.813,-0.631 18.417,-1.752 4.328,1.132 8.998,1.752 13.868,1.752 6.922,0 13.438,-1.25 19.144,-3.452 6.039,3.188 14.771,5.19 24.483,5.19 11.313,0 21.293,-2.718 27.24,-6.859 6.045,3.1 15.954,5.123 27.161,5.123 3.577,0 7.02,-0.209 10.25,-0.59 2.901,0.382 5.947,0.588 9.092,0.588 19.521,0 35.347,-7.846 35.347,-17.522 0,-9.676 -15.826,-17.523 -35.347,-17.523 z"
       id="path108"
       inkscape:connector-curvature="0"
       style="fill:#eff9fe" /><path
       d="m 30.628,215.605 c -5.984,0 -11.617,0.74 -16.557,2.041 -3.703,-6.188 -15.487,-10.711 -29.462,-10.711 -6.87,0 -13.211,1.093 -18.323,2.939 -2.364,-1.865 -5.697,-3.033 -9.401,-3.033 -2.614,0 -5.045,0.584 -7.082,1.581 -6.613,-9.745 -20.491,-16.458 -36.545,-16.458 -18.292,0 -33.761,8.713 -38.876,20.698 -21.183,1.38 -37.426,9.31 -37.426,18.888 0,10.549 19.707,19.1 44.017,19.1 6.577,0 12.813,-0.631 18.417,-1.752 4.328,1.132 8.998,1.752 13.868,1.752 6.922,0 13.438,-1.25 19.144,-3.452 6.039,3.188 14.771,5.19 24.483,5.19 11.313,0 21.293,-2.718 27.24,-6.859 6.045,3.1 15.954,5.123 27.161,5.123 3.577,0 7.02,-0.209 10.25,-0.59 2.901,0.382 5.947,0.588 9.092,0.588 19.521,0 35.347,-7.846 35.347,-17.522 0,-9.676 -15.825,-17.523 -35.347,-17.523 z"
       id="path110"
       inkscape:connector-curvature="0"
       style="fill:#ffffff" /><path
       d="m 391.355,132.104 c 0.209,-0.777 0.35,-1.568 0.35,-2.381 0,-8.838 -12.69,-16.006 -28.346,-16.006 -12.793,0 -23.598,4.789 -27.122,11.363 -2.729,-0.918 -5.944,-1.566 -9.456,-1.854 -2.58,-3.969 -10.455,-6.855 -19.776,-6.855 -3.223,0 -6.26,0.355 -8.98,0.971 -3.52,-4.126 -10.709,-6.959 -19.03,-6.959 -5.864,0 -11.174,1.405 -15.031,3.679 -1.355,-0.22 -2.801,-0.345 -4.31,-0.345 -7.368,0 -13.339,2.838 -13.339,6.336 0,0.473 0.117,0.932 0.323,1.375 -0.109,-0.002 -0.214,-0.008 -0.323,-0.008 -12.893,0 -23.342,4.758 -23.342,10.627 0,5.871 10.449,10.629 23.342,10.629 10.39,0 35.22,-2.949 46.352,-2.949 4.505,0 8.732,-0.303 12.411,-0.832 4.09,2.299 10.444,3.781 17.601,3.781 7.111,0 13.438,-1.465 17.527,-3.74 5.133,4.105 13.581,6.795 23.154,6.795 5.276,0 10.2,-0.83 14.431,-2.248 2.874,1.377 7.008,2.248 11.622,2.248 8.678,0 15.715,-3.063 15.715,-6.842 -10e-4,-3.491 -6.012,-6.366 -13.773,-6.785 z"
       id="path112"
       inkscape:connector-curvature="0"
       style="fill:#ddedf9" /><path
       d="m 241.266,128.068 c 0.209,-0.779 0.35,-1.568 0.35,-2.381 0,-8.84 -12.69,-16.006 -28.346,-16.006 -12.793,0 -23.598,4.787 -27.122,11.361 -2.729,-0.916 -5.944,-1.564 -9.456,-1.854 -2.58,-3.967 -10.455,-6.855 -19.776,-6.855 -3.223,0 -6.261,0.356 -8.979,0.971 -3.521,-4.125 -10.711,-6.958 -19.031,-6.958 -5.864,0 -11.174,1.405 -15.031,3.679 -1.355,-0.219 -2.801,-0.344 -4.31,-0.344 -7.368,0 -13.339,2.837 -13.339,6.336 0,0.473 0.117,0.931 0.323,1.373 -0.109,0 -0.214,-0.008 -0.323,-0.008 -12.893,0 -23.342,4.759 -23.342,10.629 0,5.871 10.45,10.629 23.342,10.629 10.39,0 35.219,-2.949 46.352,-2.949 4.504,0 8.732,-0.303 12.411,-0.832 4.09,2.297 10.444,3.781 17.601,3.781 7.111,0 13.438,-1.465 17.527,-3.74 5.133,4.105 13.581,6.793 23.154,6.793 5.276,0 10.2,-0.83 14.431,-2.246 2.874,1.377 7.008,2.246 11.622,2.246 8.678,0 15.715,-3.063 15.715,-6.84 -0.002,-3.492 -6.013,-6.367 -13.773,-6.785 z"
       id="path114"
       inkscape:connector-curvature="0"
       style="fill:#eff9fe" /><path
       d="m 54.759,128.068 c 0.209,-0.779 0.35,-1.568 0.35,-2.381 0,-8.84 -12.691,-16.006 -28.346,-16.006 -12.793,0 -23.598,4.787 -27.123,11.361 -2.729,-0.916 -5.944,-1.564 -9.456,-1.854 -2.58,-3.967 -10.455,-6.855 -19.776,-6.855 -3.223,0 -6.26,0.356 -8.98,0.971 -3.52,-4.125 -10.71,-6.958 -19.031,-6.958 -5.864,0 -11.174,1.405 -15.032,3.679 -1.355,-0.219 -2.801,-0.344 -4.309,-0.344 -7.368,0 -13.339,2.837 -13.339,6.336 0,0.473 0.117,0.931 0.323,1.373 -0.109,0 -0.213,-0.008 -0.323,-0.008 -12.893,0 -23.342,4.759 -23.342,10.629 0,5.871 10.45,10.629 23.342,10.629 10.39,0 35.219,-2.949 46.352,-2.949 4.504,0 8.732,-0.303 12.411,-0.832 4.09,2.297 10.444,3.781 17.601,3.781 7.111,0 13.438,-1.465 17.527,-3.74 5.133,4.105 13.581,6.793 23.155,6.793 5.275,0 10.199,-0.83 14.43,-2.246 2.875,1.377 7.008,2.246 11.623,2.246 8.678,0 15.715,-3.063 15.715,-6.84 -0.001,-3.492 -6.012,-6.367 -13.772,-6.785 z"
       id="path116"
       inkscape:connector-curvature="0"
       style="fill:#ffffff" /><path
       d="m 436.223,9.757 c 0,-4.832 -11.789,-8.75 -26.331,-8.75 -1.002,0 -18.329,-6.986 -28.697,-7.432 -5.754,-8.773 -21.396,-15.068 -39.803,-15.068 -18.559,0 -34.305,6.399 -39.941,15.285 -2.33,-0.186 -4.746,-0.285 -7.228,-0.285 -14.264,0 -26.469,3.23 -31.516,7.81 -2.227,-0.2 -4.566,-0.31 -6.984,-0.31 -14.636,0 -26.5,3.918 -26.5,8.75 0,4.832 11.864,8.75 26.5,8.75 7.118,0 13.576,-0.929 18.337,-2.437 5.642,1.53 32.271,1.813 37.306,0.729 7.647,4.139 18.273,6.707 30.026,6.707 1.386,0 22.625,11 36.915,11 17.686,0 32.459,-6.907 36.066,-16.129 12.406,-0.706 21.85,-4.296 21.85,-8.62 z"
       id="path118"
       inkscape:connector-curvature="0"
       style="fill:#ddedf9" /><path
       d="m 305.25,9.757 c 0,-4.832 -11.789,-8.75 -26.331,-8.75 -1.002,0 -18.329,-6.986 -28.697,-7.432 -5.754,-8.773 -21.396,-15.068 -39.803,-15.068 -18.559,0 -34.305,6.399 -39.941,15.285 -2.33,-0.186 -4.746,-0.285 -7.228,-0.285 -14.264,0 -26.469,3.23 -31.516,7.81 -2.227,-0.2 -4.566,-0.31 -6.984,-0.31 -14.636,0 -26.5,3.918 -26.5,8.75 0,4.832 11.864,8.75 26.5,8.75 7.118,0 13.576,-0.929 18.337,-2.437 5.642,1.53 32.271,1.813 37.306,0.729 7.647,4.139 18.273,6.707 30.026,6.707 1.386,0 22.625,11 36.915,11 17.686,0 32.459,-6.907 36.066,-16.129 12.407,-0.706 21.85,-4.296 21.85,-8.62 z"
       id="path120"
       inkscape:connector-curvature="0"
       style="fill:#eff9fe" /><path
       d="m 88.718,9.757 c 0,-4.832 -11.789,-8.75 -26.331,-8.75 -1.002,0 -18.329,-6.986 -28.697,-7.432 -5.754,-8.773 -21.396,-15.068 -39.803,-15.068 -18.559,0 -34.305,6.399 -39.941,15.285 -2.33,-0.186 -4.746,-0.285 -7.228,-0.285 -14.264,0 -26.469,3.23 -31.516,7.81 -2.227,-0.2 -4.566,-0.31 -6.984,-0.31 -14.636,0 -26.5,3.918 -26.5,8.75 0,4.832 11.864,8.75 26.5,8.75 7.118,0 13.576,-0.929 18.337,-2.437 5.642,1.53 32.271,1.813 37.306,0.729 7.647,4.139 18.273,6.707 30.026,6.707 1.386,0 22.625,11 36.915,11 17.686,0 32.459,-6.907 36.066,-16.129 12.406,-0.706 21.85,-4.296 21.85,-8.62 z"
       id="path122"
       inkscape:connector-curvature="0"
       style="fill:#ffffff" /></g><g
     inkscape:groupmode="layer"
     id="layer4"
     inkscape:label="felho"
     transform="translate(-19.282999,-16.637724)"><path
       d="m 187.151,36.334724 c 0.944,-1.741 1.481,-3.666 1.481,-5.697 0,-7.732 -7.611,-14 -17,-14 -6.648,0 -12.391,3.151 -15.185,7.731 -2.787,-0.692 -5.808,-1.267 -9.004,-1.709 -1.179,-3.402 -8.388,-6.022 -17.129,-6.022 -9.247,0 -16.78,2.932 -17.271,6.621 -1.561,0.281 -3.066,0.597 -4.516,0.942 -3.047,-1.573 -7.384,-2.563 -12.214001,-2.563 -9.214,0 -16.683,3.582 -16.683,8 0,0.524 0.112,1.036 0.313,1.533 -1.731,-0.342 -3.628,-0.533 -5.62,-0.533 -8.115,0 -14.693,3.134 -14.693,7 0,0.024 0.008,0.048 0.008,0.072 -1.328,-0.046 -2.676,-0.072 -4.044,-0.072 -20.054,0 -36.311,5.148 -36.311,11.5 0,6.352 67.495,7.822 71.497,2.848 0.375,0.008 0.744,0.022 1.123,0.022 5.023,0 30.035001,1.63 40.227001,1.63 8.82,0 36.145,0 44,0 15.74,0 28.5,-4.029 28.5,-9 0.003,-3.738 -7.21,-6.942 -17.479,-8.303 z"
       id="path124"
       inkscape:connector-curvature="0"
       style="fill:#ddedf9" /></g></svg>